module codeberg.org/unixer/ytq

go 1.21.3

require (
	github.com/savioxavier/termlink v1.3.0
	github.com/PuerkitoBio/goquery v1.8.1
)

require (
	github.com/andybalholm/cascadia v1.3.1 // indirect
	golang.org/x/net v0.7.0 // indirect
)
